{
  "datasetName": "cache_test",
  "tableName": "cache_test_1",
  "rows": [
    [
      "TEMP",
      2,
      "2021-02-01",
      [
        1,
        2
      ]
    ],
    [
      "TEMP",
      4,
      "2021-02-02",
      [
        1,
        2,
        3
      ]
    ],
    [
      "TEMP",
      5,
      "2021-02-03",
      [
        1
      ]
    ],
    [
      "TEMP",
      3,
      "2021-02-04",
      [
        1
      ]
    ],
    [
      "TEMP",
      -2,
      "2021-02-05",
      [
        1
      ]
    ]
  ]
}